<?xml version="1.0" encoding="utf-8"?>
<!-- Generator: Adobe Illustrator 22.0.0, SVG Export Plug-In . SVG Version: 6.00 Build 0)  -->
<svg version="1.1" xmlns="http://www.w3.org/2000/svg" xmlns:xlink="http://www.w3.org/1999/xlink" x="0px" y="0px"
	 viewBox="0 0 792 612" style="enable-background:new 0 0 792 612;" xml:space="preserve">
<style type="text/css">
	.st0{display:none;}
	.st1{display:inline;fill:#FFFFFF;}
	.st2{display:inline;}
	.st3{fill:#5D88C6;}
	.st4{display:inline;fill:#5D88C6;}
	.st5{display:inline;fill:#292E72;}
	.st6{fill:#292E72;}
	.st7{display:inline;fill:#3E4CA0;}
	.st8{fill:#FFFFFF;}
	.st9{fill:#3E4CA0;}
</style>
<g id="Layer_1" class="st0">
	<polyline class="st1" points="154.3,321.8 380.2,64.3 637.7,290.2 411.8,547.7 154.3,321.8 154.3,321.8 	"/>
	<g class="st2">
		<g>
			<path class="st3" d="M257.8,437.6c3.2,0,3.2-5,0-5C254.6,432.6,254.6,437.6,257.8,437.6L257.8,437.6z"/>
		</g>
	</g>
	<g class="st2">
		<g>
			<path class="st3" d="M270.2,437.6c3.2,0,3.2-5,0-5C267,432.6,267,437.6,270.2,437.6L270.2,437.6z"/>
		</g>
	</g>
	<g class="st2">
		<g>
			<path class="st3" d="M270.2,437.6c3.2,0,3.2-5,0-5C267,432.6,267,437.6,270.2,437.6L270.2,437.6z"/>
		</g>
	</g>
	<g class="st2">
		<g>
			<path class="st3" d="M266.1,441.7c3.2,0,3.2-5,0-5C262.8,436.7,262.8,441.7,266.1,441.7L266.1,441.7z"/>
		</g>
	</g>
	<polygon class="st4" points="613.6,160.7 526.4,192.2 416,159.2 604.7,160.6 	"/>
	<polygon class="st4" points="182.5,450.1 269.8,418.6 380.1,451.6 191.5,450.2 	"/>
	<path class="st5" d="M332.8,254.8c4.7-3.6,7.6-9.8,8.5-18.7c0-7.6-1.7-12.8-5.1-15.6c-3.4-2.8-8.5-4.2-15.1-4.2h-35l-7.5,43.8h33.8
		C321.2,260.2,328,258.4,332.8,254.8z"/>
	<path class="st5" d="M263.7,344.4h35.4c9.5,0,17-1.7,22.6-5.1c5.6-3.4,9.3-10.1,11.2-20.1c0-10.1-2.1-17-6.3-20.7
		c-4.2-3.8-10.8-5.6-19.7-5.6h-34.2L263.7,344.4z"/>
	<g class="st2">
		<path class="st6" d="M489.8,438.6l-34.2-96.1h23.5c6.5,0,13.1-2.4,19.7-7.1c6.6-4.7,10.9-12.7,12.9-23.9c0.8-3.7,1.2-7.1,1.2-10.4
			c0-15.4-7.7-23.1-23.1-23.1h-23.1l-28.1,160.1h-60.6L411.9,246H517c17.3,0,31.1,3.7,41.4,11c10.3,7.3,15.5,18.9,15.5,34.8
			c0,4.2-0.4,9-1.2,14.4c-2.2,13.2-6.1,23.6-11.7,31.3c-5.6,7.7-11.4,13.2-17.5,16.4c-6.1,3.2-11.7,5.2-16.8,5.9
			c-5.1,0.7-7.9,1.1-8.4,1.2l20.1,42.3l99.2-113.1L380.2,64.3L275,184.3h55.5c37.7,0,56.5,12.2,56.5,36.7c0,1.6-0.3,4.6-0.8,9
			c-2.8,18-10.1,30-22.2,36c-12,6-24.1,9-36.3,9c34.6,0,52,12.4,52,37.2c0,1.6-0.3,4.9-0.8,9.9c-3.8,23.6-14,38.5-30.8,44.9
			c-16.8,6.4-37.2,9.6-61.2,9.6h-70.1l195.1,171.2l95.8-109.2L489.8,438.6z"/>
		<polygon class="st6" points="220.1,246.8 154.3,321.8 199.9,361.7 		"/>
	</g>
	<polygon class="st7" points="555.8,452.1 555.8,449 182.5,449 182.5,534.6 483.4,534.6 	"/>
	<polygon class="st7" points="240.3,158.8 240.3,161.8 613.6,161.8 613.6,76.2 312.7,76.2 	"/>
	<g class="st2">
		<path class="st8" d="M281,481.3c1.4,0.6,2.5,1.3,3.2,2v2.8c-1.5-1.4-2.8-2.3-3.8-2.6c-1-0.4-2.3-0.5-3.8-0.5h-16.8
			c-3.1,0-5.5,1-7.1,3c-1.6,2-2.4,4.4-2.4,7.2v14c0,2.8,0.8,5.2,2.4,7.1c1.6,1.9,4,2.9,7.1,2.9h17c1.5,0,2.8-0.2,4-0.5
			c1.1-0.4,2.3-1.3,3.5-2.7v3.2c-0.7,1.4-1.8,2.2-3.2,2.4c-1.4,0.2-2.9,0.3-4.4,0.3h-16.8c-1.9,0-3.6-0.3-5.1-1
			c-1.5-0.7-2.8-1.6-3.9-2.7c-1.1-1.2-1.9-2.5-2.4-4c-0.6-1.5-0.8-3.2-0.8-5v-14c0-1.8,0.3-3.4,0.8-5c0.6-1.5,1.4-2.9,2.4-4
			c1.1-1.2,2.3-2.1,3.9-2.7c1.5-0.7,3.2-1,5.1-1h16.8C278.1,480.4,279.6,480.7,281,481.3z"/>
		<path class="st8" d="M311.7,480.4c1.8,0,3.6,0.3,5.2,1c1.6,0.7,3,1.6,4.2,2.7c1.2,1.2,2.1,2.5,2.8,4c0.7,1.5,1,3.1,1,4.9v2.9
			c0,1.8-0.3,3.4-1,5c-0.7,1.5-1.6,2.9-2.8,4c-1.2,1.2-2.6,2.1-4.2,2.7c-1.6,0.7-3.4,1-5.2,1h-14.7c-1.5,0-2.7,0-3.6-0.1
			c-0.9-0.1-1.7-0.5-2.4-1.2v4.2c0.2,1.2,0.6,2.1,1.2,2.9c0.6,0.7,1.4,1.3,2.4,1.7c1,0.4,2,0.7,3.1,0.9c1.1,0.2,2.3,0.2,3.5,0.2H325
			v-0.1v2.8h-23.6c-1.4,0-2.8-0.1-4.3-0.4c-1.5-0.3-2.9-0.7-4.1-1.3c-1.3-0.6-2.3-1.5-3.2-2.6c-0.9-1.1-1.4-2.5-1.5-4.1v-5.5v-2.9
			v-8.4V486v-3.2c1.4-1.1,2.8-1.8,4.3-2.1c1.5-0.3,3-0.4,4.5-0.4H311.7z M322,492.9c0-1.4-0.3-2.7-0.8-3.9c-0.5-1.2-1.2-2.3-2.1-3.2
			c-0.9-0.9-2-1.6-3.3-2.2c-1.3-0.5-2.7-0.8-4.1-0.8h-14.6c-1.5,0-2.7,0.1-3.6,0.3c-0.9,0.2-1.7,0.7-2.4,1.4v19.7
			c0.7,0.7,1.5,1.2,2.4,1.5c0.9,0.3,2,0.4,3.6,0.4h14.8c1.5,0,2.8-0.3,4.1-0.8c1.3-0.6,2.3-1.3,3.3-2.2c0.9-0.9,1.6-2,2.1-3.3
			c0.5-1.3,0.7-2.6,0.7-4V492.9z"/>
		<path class="st8" d="M361.4,484.6c1.5,1.4,2.5,3,3.3,4.9c0.7,1.8,1.1,3.5,1.1,5v25.2h-2.9v-25.2c-0.3-3.5-1.6-6.3-3.8-8.3
			c-2.2-2-5.4-3.1-9.5-3.3h-5.8c-1.5,0-3,0.3-4.4,0.8c-1.4,0.6-2.6,1.4-3.7,2.4c-1.1,1-2,2.2-2.7,3.7c-0.7,1.4-1.1,3-1.1,4.8v25.1
			h-2.9v-25.2c0-1.8,0.4-3.5,1.1-5.2c0.7-1.7,1.7-3.2,3-4.5c1.3-1.3,2.8-2.4,4.7-3.2c1.8-0.8,3.8-1.2,6-1.2h5.8c2.2,0,4.4,0.3,6.5,1
			C358.2,482.1,360,483.2,361.4,484.6z"/>
		<path class="st8" d="M372.6,480.4H388v2.5h-15.3v22.8c0.3,1.5,0.8,3,1.5,4.3c0.8,1.4,1.8,2.5,3.1,3.6c1.3,1,2.8,1.8,4.6,2.5
			c1.8,0.6,3.8,1,6.1,1v2.7c-2.8,0-5.3-0.4-7.5-1.2c-2.2-0.8-4.1-1.9-5.7-3.2c-1.6-1.3-2.8-2.8-3.6-4.5c-0.9-1.7-1.3-3.4-1.3-5.1
			v-44.9h2.8V480.4z"/>
		<path class="st8" d="M415.5,480.4c1.8,0,3.6,0.3,5.2,1c1.6,0.7,3,1.6,4.2,2.7c1.2,1.2,2.1,2.5,2.8,4c0.7,1.5,1,3.1,1,4.9v2.9
			c0,1.8-0.3,3.4-1,5c-0.7,1.5-1.6,2.9-2.8,4c-1.2,1.2-2.6,2.1-4.2,2.7c-1.6,0.7-3.4,1-5.2,1h-14.7c-1.5,0-2.7,0-3.6-0.1
			c-0.9-0.1-1.7-0.5-2.4-1.2v4.2c0.2,1.2,0.6,2.1,1.2,2.9c0.6,0.7,1.4,1.3,2.4,1.7c1,0.4,2,0.7,3.1,0.9c1.1,0.2,2.3,0.2,3.5,0.2
			h23.7v-0.1v2.8h-23.6c-1.4,0-2.8-0.1-4.3-0.4c-1.5-0.3-2.9-0.7-4.1-1.3c-1.3-0.6-2.3-1.5-3.2-2.6c-0.9-1.1-1.4-2.5-1.5-4.1v-5.5
			v-2.9v-8.4V486v-3.2c1.4-1.1,2.8-1.8,4.3-2.1c1.5-0.3,3-0.4,4.5-0.4H415.5z M425.8,492.9c0-1.4-0.3-2.7-0.8-3.9
			c-0.5-1.2-1.2-2.3-2.1-3.2c-0.9-0.9-2-1.6-3.3-2.2c-1.3-0.5-2.7-0.8-4.1-0.8h-14.6c-1.5,0-2.7,0.1-3.6,0.3
			c-0.9,0.2-1.7,0.7-2.4,1.4v19.7c0.7,0.7,1.5,1.2,2.4,1.5c0.9,0.3,2,0.4,3.6,0.4h14.8c1.5,0,2.8-0.3,4.1-0.8
			c1.3-0.6,2.3-1.3,3.3-2.2c0.9-0.9,1.6-2,2.1-3.3c0.5-1.3,0.7-2.6,0.7-4V492.9z"/>
		<path class="st8" d="M452.4,482.9c-1.7,0-3.5,0.2-5.4,0.6c-1.9,0.4-3.6,1.1-5.2,2c-1.6,0.9-3,2.1-4.1,3.6c-1.1,1.5-1.8,3.3-2,5.4
			v25.2h-2.9v-25.2c0-1.3,0.3-2.8,1-4.5c0.7-1.6,1.8-3.2,3.4-4.6c1.6-1.4,3.6-2.6,6.1-3.6c2.5-1,5.5-1.4,9.1-1.4V482.9z"/>
	</g>
	<g class="st2">
		<path class="st8" d="M348.8,111.2h16.8v2.5h-16.8v36.8H346v-36.8h-9.8v-2.5h9.8v-9.8c0-1.8,0.5-3.3,1.6-4.6c1.1-1.3,2.4-2.3,4-3
			c1.6-0.8,3.4-1.3,5.4-1.7c2-0.4,3.9-0.5,5.8-0.5v2.8c-1.3,0-2.7,0.1-4.3,0.2c-1.6,0.2-3.1,0.5-4.5,1c-1.4,0.5-2.6,1.3-3.6,2.2
			c-1,0.9-1.6,2.1-1.7,3.6V111.2z"/>
		<path class="st8" d="M369.6,111.2h2.8v39.3h-2.8V111.2z"/>
		<path class="st8" d="M379.3,111.2h15.3v2.5h-15.3v22.8c0.3,1.5,0.8,3,1.5,4.3c0.8,1.4,1.8,2.5,3.1,3.6c1.3,1,2.8,1.8,4.6,2.5
			c1.8,0.6,3.8,1,6.1,1v2.7c-2.8,0-5.3-0.4-7.5-1.2c-2.2-0.8-4.1-1.9-5.7-3.2c-1.6-1.3-2.8-2.8-3.6-4.5c-0.9-1.7-1.3-3.4-1.3-5.1
			V91.5h2.8V111.2z"/>
		<path class="st8" d="M431,115.4c1.5,1.4,2.5,3,3.3,4.9c0.7,1.8,1.1,3.5,1.1,5v25.2h-2.9v-25.2c-0.3-3.5-1.6-6.3-3.8-8.3
			c-2.2-2-5.4-3.1-9.5-3.3h-5.8c-1.5,0-3,0.3-4.4,0.8c-1.4,0.6-2.6,1.4-3.7,2.4c-1.1,1-2,2.2-2.7,3.7c-0.7,1.4-1.1,3-1.1,4.8v25.1
			h-2.9v-25.2c0-1.8,0.4-3.5,1.1-5.2c0.7-1.7,1.7-3.2,3-4.5c1.3-1.3,2.8-2.4,4.7-3.2c1.8-0.8,3.8-1.2,6-1.2h5.8c2.2,0,4.4,0.3,6.5,1
			C427.8,112.9,429.6,114,431,115.4z"/>
		<path class="st8" d="M462.9,111.2c1.8,0,3.6,0.3,5.2,1c1.6,0.7,3,1.6,4.2,2.7c1.2,1.2,2.1,2.5,2.8,4c0.7,1.5,1,3.1,1,4.9v2.9
			c0,1.8-0.3,3.4-1,5c-0.7,1.5-1.6,2.9-2.8,4c-1.2,1.2-2.6,2.1-4.2,2.7c-1.6,0.7-3.4,1-5.2,1h-14.7c-1.5,0-2.7,0-3.6-0.1
			c-0.9-0.1-1.7-0.5-2.4-1.2v4.2c0.2,1.2,0.6,2.1,1.2,2.9c0.6,0.7,1.4,1.3,2.4,1.7c1,0.4,2,0.7,3.1,0.9c1.1,0.2,2.3,0.2,3.5,0.2
			h23.7v-0.1v2.8h-23.6c-1.4,0-2.8-0.1-4.3-0.4c-1.5-0.3-2.9-0.7-4.1-1.3c-1.3-0.6-2.3-1.5-3.2-2.6c-0.9-1.1-1.4-2.5-1.5-4.1v-5.5
			v-2.9v-8.4v-8.4v-3.2c1.4-1.1,2.8-1.8,4.3-2.1c1.5-0.3,3-0.4,4.5-0.4H462.9z M473.2,123.7c0-1.4-0.3-2.7-0.8-3.9
			c-0.5-1.2-1.2-2.3-2.1-3.2c-0.9-0.9-2-1.6-3.3-2.2c-1.3-0.5-2.7-0.8-4.1-0.8h-14.6c-1.5,0-2.7,0.1-3.6,0.3
			c-0.9,0.2-1.7,0.7-2.4,1.4V135c0.7,0.7,1.5,1.2,2.4,1.5c0.9,0.3,2,0.4,3.6,0.4H463c1.5,0,2.8-0.3,4.1-0.8c1.3-0.6,2.3-1.3,3.3-2.2
			c0.9-0.9,1.6-2,2.1-3.3c0.5-1.3,0.7-2.6,0.7-4V123.7z"/>
		<path class="st8" d="M509.2,130.5c1.5,0.6,2.9,1.4,4,2.5c1.2,1.1,2.1,2.3,2.7,3.6c0.7,1.4,1,2.7,1,4.1c0,1.4-0.3,2.7-1,3.9
			c-0.7,1.2-1.6,2.3-2.7,3.1c-1.2,0.9-2.5,1.5-4.1,2c-1.6,0.5-3.2,0.7-5,0.7h-22.6v-2.7h22.6c2.9,0,5.3-0.7,7.2-2
			c1.9-1.3,2.8-3,2.8-5.1c0-1-0.2-2-0.7-3c-0.5-1-1.2-1.9-2.1-2.7c-0.9-0.8-1.9-1.5-3.1-2c-1.2-0.5-2.5-0.8-4-0.8H493
			c-1.8,0-3.4-0.2-5-0.7c-1.6-0.5-2.9-1.2-4.1-2.1c-1.2-0.9-2.1-1.9-2.7-3.2c-0.7-1.2-1-2.5-1-3.9c0-1.4,0.3-2.8,1-4.1
			c0.7-1.4,1.6-2.6,2.7-3.6c1.2-1.1,2.5-1.9,4.1-2.5c1.6-0.6,3.2-0.9,5-0.9h22.6v2.5H493c-1.5,0-2.8,0.2-4,0.7
			c-1.2,0.5-2.3,1.2-3.2,2c-0.9,0.8-1.6,1.8-2.1,2.8c-0.5,1.1-0.7,2.1-0.7,3.2c0,1.8,0.9,3.5,2.8,5c1.9,1.5,4.3,2.2,7.2,2.2
			l11.3,0.1C506.1,129.6,507.7,129.9,509.2,130.5z"/>
		<path class="st8" d="M550,130.5c1.5,0.6,2.9,1.4,4,2.5c1.2,1.1,2.1,2.3,2.7,3.6c0.7,1.4,1,2.7,1,4.1c0,1.4-0.3,2.7-1,3.9
			c-0.7,1.2-1.6,2.3-2.7,3.1c-1.2,0.9-2.5,1.5-4.1,2c-1.6,0.5-3.2,0.7-5,0.7h-22.6v-2.7H545c2.9,0,5.3-0.7,7.2-2
			c1.9-1.3,2.8-3,2.8-5.1c0-1-0.2-2-0.7-3c-0.5-1-1.2-1.9-2.1-2.7c-0.9-0.8-1.9-1.5-3.1-2c-1.2-0.5-2.5-0.8-4-0.8h-11.3
			c-1.8,0-3.4-0.2-5-0.7c-1.6-0.5-2.9-1.2-4.1-2.1c-1.2-0.9-2.1-1.9-2.7-3.2c-0.7-1.2-1-2.5-1-3.9c0-1.4,0.3-2.8,1-4.1
			c0.7-1.4,1.6-2.6,2.7-3.6c1.2-1.1,2.5-1.9,4.1-2.5c1.6-0.6,3.2-0.9,5-0.9h22.6v2.5h-22.6c-1.5,0-2.8,0.2-4,0.7
			c-1.2,0.5-2.3,1.2-3.2,2c-0.9,0.8-1.6,1.8-2.1,2.8c-0.5,1.1-0.7,2.1-0.7,3.2c0,1.8,0.9,3.5,2.8,5c1.9,1.5,4.3,2.2,7.2,2.2
			l11.3,0.1C546.9,129.6,548.5,129.9,550,130.5z"/>
	</g>
</g>
<g id="Layer_1_copy">
	<polyline class="st8" points="154.3,321.8 380.2,64.3 637.7,290.2 411.8,547.7 154.3,321.8 154.3,321.8 	"/>
	<g>
		<g>
			<path class="st3" d="M257.8,437.6c3.2,0,3.2-5,0-5C254.6,432.6,254.6,437.6,257.8,437.6L257.8,437.6z"/>
		</g>
	</g>
	<g>
		<g>
			<path class="st3" d="M270.2,437.6c3.2,0,3.2-5,0-5C267,432.6,267,437.6,270.2,437.6L270.2,437.6z"/>
		</g>
	</g>
	<g>
		<g>
			<path class="st3" d="M270.2,437.6c3.2,0,3.2-5,0-5C267,432.6,267,437.6,270.2,437.6L270.2,437.6z"/>
		</g>
	</g>
	<g>
		<g>
			<path class="st3" d="M266.1,441.7c3.2,0,3.2-5,0-5C262.8,436.7,262.8,441.7,266.1,441.7L266.1,441.7z"/>
		</g>
	</g>
	<polygon class="st3" points="613.6,160.7 526.4,192.2 416,159.2 604.7,160.6 	"/>
	<polygon class="st3" points="182.5,450.1 269.8,418.6 380.1,451.6 191.5,450.2 	"/>
	<path class="st6" d="M332.8,254.8c4.7-3.6,7.6-9.8,8.5-18.7c0-7.6-1.7-12.8-5.1-15.6c-3.4-2.8-8.5-4.2-15.1-4.2h-35l-7.5,43.8h33.8
		C321.2,260.2,328,258.4,332.8,254.8z"/>
	<path class="st6" d="M263.7,344.4h35.4c9.5,0,17-1.7,22.6-5.1c5.6-3.4,9.3-10.1,11.2-20.1c0-10.1-2.1-17-6.3-20.7
		c-4.2-3.8-10.8-5.6-19.7-5.6h-34.2L263.7,344.4z"/>
	<g>
		<path class="st6" d="M489.8,438.6l-34.2-96.1h23.5c6.5,0,13.1-2.4,19.7-7.1c6.6-4.7,10.9-12.7,12.9-23.9c0.8-3.7,1.2-7.1,1.2-10.4
			c0-15.4-7.7-23.1-23.1-23.1h-23.1l-28.1,160.1h-60.6L411.9,246H517c17.3,0,31.1,3.7,41.4,11c10.3,7.3,15.5,18.9,15.5,34.8
			c0,4.2-0.4,9-1.2,14.4c-2.2,13.2-6.1,23.6-11.7,31.3c-5.6,7.7-11.4,13.2-17.5,16.4c-6.1,3.2-11.7,5.2-16.8,5.9
			c-5.1,0.7-7.9,1.1-8.4,1.2l20.1,42.3l99.2-113.1L380.2,64.3L275,184.3h55.5c37.7,0,56.5,12.2,56.5,36.7c0,1.6-0.3,4.6-0.8,9
			c-2.8,18-10.1,30-22.2,36c-12,6-24.1,9-36.3,9c34.6,0,52,12.4,52,37.2c0,1.6-0.3,4.9-0.8,9.9c-3.8,23.6-14,38.5-30.8,44.9
			c-16.8,6.4-37.2,9.6-61.2,9.6h-70.1l195.1,171.2l95.8-109.2L489.8,438.6z"/>
		<polygon class="st6" points="220.1,246.8 154.3,321.8 199.9,361.7 		"/>
	</g>
	<polygon class="st9" points="555.8,452.1 555.8,449 182.5,449 182.5,534.6 483.4,534.6 	"/>
	<polygon class="st9" points="240.3,158.8 240.3,161.8 613.6,161.8 613.6,76.2 312.7,76.2 	"/>
	<g>
		<path class="st8" d="M281,481.3c1.4,0.6,2.5,1.3,3.2,2v2.8c-1.5-1.4-2.8-2.3-3.8-2.6c-1-0.4-2.3-0.5-3.8-0.5h-16.8
			c-3.1,0-5.5,1-7.1,3c-1.6,2-2.4,4.4-2.4,7.2v14c0,2.8,0.8,5.2,2.4,7.1c1.6,1.9,4,2.9,7.1,2.9h17c1.5,0,2.8-0.2,4-0.5
			c1.1-0.4,2.3-1.3,3.5-2.7v3.2c-0.7,1.4-1.8,2.2-3.2,2.4c-1.4,0.2-2.9,0.3-4.4,0.3h-16.8c-1.9,0-3.6-0.3-5.1-1
			c-1.5-0.7-2.8-1.6-3.9-2.7c-1.1-1.2-1.9-2.5-2.4-4c-0.6-1.5-0.8-3.2-0.8-5v-14c0-1.8,0.3-3.4,0.8-5c0.6-1.5,1.4-2.9,2.4-4
			c1.1-1.2,2.3-2.1,3.9-2.7c1.5-0.7,3.2-1,5.1-1h16.8C278.1,480.4,279.6,480.7,281,481.3z"/>
		<path class="st8" d="M311.7,480.4c1.8,0,3.6,0.3,5.2,1c1.6,0.7,3,1.6,4.2,2.7c1.2,1.2,2.1,2.5,2.8,4c0.7,1.5,1,3.1,1,4.9v2.9
			c0,1.8-0.3,3.4-1,5c-0.7,1.5-1.6,2.9-2.8,4c-1.2,1.2-2.6,2.1-4.2,2.7c-1.6,0.7-3.4,1-5.2,1h-14.7c-1.5,0-2.7,0-3.6-0.1
			c-0.9-0.1-1.7-0.5-2.4-1.2v4.2c0.2,1.2,0.6,2.1,1.2,2.9c0.6,0.7,1.4,1.3,2.4,1.7c1,0.4,2,0.7,3.1,0.9c1.1,0.2,2.3,0.2,3.5,0.2H325
			v-0.1v2.8h-23.6c-1.4,0-2.8-0.1-4.3-0.4c-1.5-0.3-2.9-0.7-4.1-1.3c-1.3-0.6-2.3-1.5-3.2-2.6c-0.9-1.1-1.4-2.5-1.5-4.1v-5.5v-2.9
			v-8.4V486v-3.2c1.4-1.1,2.8-1.8,4.3-2.1c1.5-0.3,3-0.4,4.5-0.4H311.7z M322,492.9c0-1.4-0.3-2.7-0.8-3.9c-0.5-1.2-1.2-2.3-2.1-3.2
			c-0.9-0.9-2-1.6-3.3-2.2c-1.3-0.5-2.7-0.8-4.1-0.8h-14.6c-1.5,0-2.7,0.1-3.6,0.3c-0.9,0.2-1.7,0.7-2.4,1.4v19.7
			c0.7,0.7,1.5,1.2,2.4,1.5c0.9,0.3,2,0.4,3.6,0.4h14.8c1.5,0,2.8-0.3,4.1-0.8c1.3-0.6,2.3-1.3,3.3-2.2c0.9-0.9,1.6-2,2.1-3.3
			c0.5-1.3,0.7-2.6,0.7-4V492.9z"/>
		<path class="st8" d="M361.4,484.6c1.5,1.4,2.5,3,3.3,4.9c0.7,1.8,1.1,3.5,1.1,5v25.2h-2.9v-25.2c-0.3-3.5-1.6-6.3-3.8-8.3
			c-2.2-2-5.4-3.1-9.5-3.3h-5.8c-1.5,0-3,0.3-4.4,0.8c-1.4,0.6-2.6,1.4-3.7,2.4c-1.1,1-2,2.2-2.7,3.7c-0.7,1.4-1.1,3-1.1,4.8v25.1
			h-2.9v-25.2c0-1.8,0.4-3.5,1.1-5.2c0.7-1.7,1.7-3.2,3-4.5c1.3-1.3,2.8-2.4,4.7-3.2c1.8-0.8,3.8-1.2,6-1.2h5.8c2.2,0,4.4,0.3,6.5,1
			C358.2,482.1,360,483.2,361.4,484.6z"/>
		<path class="st8" d="M372.6,480.4H388v2.5h-15.3v22.8c0.3,1.5,0.8,3,1.5,4.3c0.8,1.4,1.8,2.5,3.1,3.6c1.3,1,2.8,1.8,4.6,2.5
			c1.8,0.6,3.8,1,6.1,1v2.7c-2.8,0-5.3-0.4-7.5-1.2c-2.2-0.8-4.1-1.9-5.7-3.2c-1.6-1.3-2.8-2.8-3.6-4.5c-0.9-1.7-1.3-3.4-1.3-5.1
			v-44.9h2.8V480.4z"/>
		<path class="st8" d="M415.5,480.4c1.8,0,3.6,0.3,5.2,1c1.6,0.7,3,1.6,4.2,2.7c1.2,1.2,2.1,2.5,2.8,4c0.7,1.5,1,3.1,1,4.9v2.9
			c0,1.8-0.3,3.4-1,5c-0.7,1.5-1.6,2.9-2.8,4c-1.2,1.2-2.6,2.1-4.2,2.7c-1.6,0.7-3.4,1-5.2,1h-14.7c-1.5,0-2.7,0-3.6-0.1
			c-0.9-0.1-1.7-0.5-2.4-1.2v4.2c0.2,1.2,0.6,2.1,1.2,2.9c0.6,0.7,1.4,1.3,2.4,1.7c1,0.4,2,0.7,3.1,0.9c1.1,0.2,2.3,0.2,3.5,0.2
			h23.7v-0.1v2.8h-23.6c-1.4,0-2.8-0.1-4.3-0.4c-1.5-0.3-2.9-0.7-4.1-1.3c-1.3-0.6-2.3-1.5-3.2-2.6c-0.9-1.1-1.4-2.5-1.5-4.1v-5.5
			v-2.9v-8.4V486v-3.2c1.4-1.1,2.8-1.8,4.3-2.1c1.5-0.3,3-0.4,4.5-0.4H415.5z M425.8,492.9c0-1.4-0.3-2.7-0.8-3.9
			c-0.5-1.2-1.2-2.3-2.1-3.2c-0.9-0.9-2-1.6-3.3-2.2c-1.3-0.5-2.7-0.8-4.1-0.8h-14.6c-1.5,0-2.7,0.1-3.6,0.3
			c-0.9,0.2-1.7,0.7-2.4,1.4v19.7c0.7,0.7,1.5,1.2,2.4,1.5c0.9,0.3,2,0.4,3.6,0.4h14.8c1.5,0,2.8-0.3,4.1-0.8
			c1.3-0.6,2.3-1.3,3.3-2.2c0.9-0.9,1.6-2,2.1-3.3c0.5-1.3,0.7-2.6,0.7-4V492.9z"/>
		<path class="st8" d="M452.4,482.9c-1.7,0-3.5,0.2-5.4,0.6c-1.9,0.4-3.6,1.1-5.2,2c-1.6,0.9-3,2.1-4.1,3.6c-1.1,1.5-1.8,3.3-2,5.4
			v25.2h-2.9v-25.2c0-1.3,0.3-2.8,1-4.5c0.7-1.6,1.8-3.2,3.4-4.6c1.6-1.4,3.6-2.6,6.1-3.6c2.5-1,5.5-1.4,9.1-1.4V482.9z"/>
	</g>
	<g>
		<path class="st8" d="M348.8,111.2h16.8v2.5h-16.8v36.8H346v-36.8h-9.8v-2.5h9.8v-9.8c0-1.8,0.5-3.3,1.6-4.6c1.1-1.3,2.4-2.3,4-3
			c1.6-0.8,3.4-1.3,5.4-1.7c2-0.4,3.9-0.5,5.8-0.5v2.8c-1.3,0-2.7,0.1-4.3,0.2c-1.6,0.2-3.1,0.5-4.5,1c-1.4,0.5-2.6,1.3-3.6,2.2
			c-1,0.9-1.6,2.1-1.7,3.6V111.2z"/>
		<path class="st8" d="M369.6,111.2h2.8v39.3h-2.8V111.2z"/>
		<path class="st8" d="M379.3,111.2h15.3v2.5h-15.3v22.8c0.3,1.5,0.8,3,1.5,4.3c0.8,1.4,1.8,2.5,3.1,3.6c1.3,1,2.8,1.8,4.6,2.5
			c1.8,0.6,3.8,1,6.1,1v2.7c-2.8,0-5.3-0.4-7.5-1.2c-2.2-0.8-4.1-1.9-5.7-3.2c-1.6-1.3-2.8-2.8-3.6-4.5c-0.9-1.7-1.3-3.4-1.3-5.1
			V91.5h2.8V111.2z"/>
		<path class="st8" d="M431,115.4c1.5,1.4,2.5,3,3.3,4.9c0.7,1.8,1.1,3.5,1.1,5v25.2h-2.9v-25.2c-0.3-3.5-1.6-6.3-3.8-8.3
			c-2.2-2-5.4-3.1-9.5-3.3h-5.8c-1.5,0-3,0.3-4.4,0.8c-1.4,0.6-2.6,1.4-3.7,2.4c-1.1,1-2,2.2-2.7,3.7c-0.7,1.4-1.1,3-1.1,4.8v25.1
			h-2.9v-25.2c0-1.8,0.4-3.5,1.1-5.2c0.7-1.7,1.7-3.2,3-4.5c1.3-1.3,2.8-2.4,4.7-3.2c1.8-0.8,3.8-1.2,6-1.2h5.8c2.2,0,4.4,0.3,6.5,1
			C427.8,112.9,429.6,114,431,115.4z"/>
		<path class="st8" d="M462.9,111.2c1.8,0,3.6,0.3,5.2,1c1.6,0.7,3,1.6,4.2,2.7c1.2,1.2,2.1,2.5,2.8,4c0.7,1.5,1,3.1,1,4.9v2.9
			c0,1.8-0.3,3.4-1,5c-0.7,1.5-1.6,2.9-2.8,4c-1.2,1.2-2.6,2.1-4.2,2.7c-1.6,0.7-3.4,1-5.2,1h-14.7c-1.5,0-2.7,0-3.6-0.1
			c-0.9-0.1-1.7-0.5-2.4-1.2v4.2c0.2,1.2,0.6,2.1,1.2,2.9c0.6,0.7,1.4,1.3,2.4,1.7c1,0.4,2,0.7,3.1,0.9c1.1,0.2,2.3,0.2,3.5,0.2
			h23.7v-0.1v2.8h-23.6c-1.4,0-2.8-0.1-4.3-0.4c-1.5-0.3-2.9-0.7-4.1-1.3c-1.3-0.6-2.3-1.5-3.2-2.6c-0.9-1.1-1.4-2.5-1.5-4.1v-5.5
			v-2.9v-8.4v-8.4v-3.2c1.4-1.1,2.8-1.8,4.3-2.1c1.5-0.3,3-0.4,4.5-0.4H462.9z M473.2,123.7c0-1.4-0.3-2.7-0.8-3.9
			c-0.5-1.2-1.2-2.3-2.1-3.2c-0.9-0.9-2-1.6-3.3-2.2c-1.3-0.5-2.7-0.8-4.1-0.8h-14.6c-1.5,0-2.7,0.1-3.6,0.3
			c-0.9,0.2-1.7,0.7-2.4,1.4V135c0.7,0.7,1.5,1.2,2.4,1.5c0.9,0.3,2,0.4,3.6,0.4H463c1.5,0,2.8-0.3,4.1-0.8c1.3-0.6,2.3-1.3,3.3-2.2
			c0.9-0.9,1.6-2,2.1-3.3c0.5-1.3,0.7-2.6,0.7-4V123.7z"/>
		<path class="st8" d="M509.2,130.5c1.5,0.6,2.9,1.4,4,2.5c1.2,1.1,2.1,2.3,2.7,3.6c0.7,1.4,1,2.7,1,4.1c0,1.4-0.3,2.7-1,3.9
			c-0.7,1.2-1.6,2.3-2.7,3.1c-1.2,0.9-2.5,1.5-4.1,2c-1.6,0.5-3.2,0.7-5,0.7h-22.6v-2.7h22.6c2.9,0,5.3-0.7,7.2-2
			c1.9-1.3,2.8-3,2.8-5.1c0-1-0.2-2-0.7-3c-0.5-1-1.2-1.9-2.1-2.7c-0.9-0.8-1.9-1.5-3.1-2c-1.2-0.5-2.5-0.8-4-0.8H493
			c-1.8,0-3.4-0.2-5-0.7c-1.6-0.5-2.9-1.2-4.1-2.1c-1.2-0.9-2.1-1.9-2.7-3.2c-0.7-1.2-1-2.5-1-3.9c0-1.4,0.3-2.8,1-4.1
			c0.7-1.4,1.6-2.6,2.7-3.6c1.2-1.1,2.5-1.9,4.1-2.5c1.6-0.6,3.2-0.9,5-0.9h22.6v2.5H493c-1.5,0-2.8,0.2-4,0.7
			c-1.2,0.5-2.3,1.2-3.2,2c-0.9,0.8-1.6,1.8-2.1,2.8c-0.5,1.1-0.7,2.1-0.7,3.2c0,1.8,0.9,3.5,2.8,5c1.9,1.5,4.3,2.2,7.2,2.2
			l11.3,0.1C506.1,129.6,507.7,129.9,509.2,130.5z"/>
		<path class="st8" d="M550,130.5c1.5,0.6,2.9,1.4,4,2.5c1.2,1.1,2.1,2.3,2.7,3.6c0.7,1.4,1,2.7,1,4.1c0,1.4-0.3,2.7-1,3.9
			c-0.7,1.2-1.6,2.3-2.7,3.1c-1.2,0.9-2.5,1.5-4.1,2c-1.6,0.5-3.2,0.7-5,0.7h-22.6v-2.7H545c2.9,0,5.3-0.7,7.2-2
			c1.9-1.3,2.8-3,2.8-5.1c0-1-0.2-2-0.7-3c-0.5-1-1.2-1.9-2.1-2.7c-0.9-0.8-1.9-1.5-3.1-2c-1.2-0.5-2.5-0.8-4-0.8h-11.3
			c-1.8,0-3.4-0.2-5-0.7c-1.6-0.5-2.9-1.2-4.1-2.1c-1.2-0.9-2.1-1.9-2.7-3.2c-0.7-1.2-1-2.5-1-3.9c0-1.4,0.3-2.8,1-4.1
			c0.7-1.4,1.6-2.6,2.7-3.6c1.2-1.1,2.5-1.9,4.1-2.5c1.6-0.6,3.2-0.9,5-0.9h22.6v2.5h-22.6c-1.5,0-2.8,0.2-4,0.7
			c-1.2,0.5-2.3,1.2-3.2,2c-0.9,0.8-1.6,1.8-2.1,2.8c-0.5,1.1-0.7,2.1-0.7,3.2c0,1.8,0.9,3.5,2.8,5c1.9,1.5,4.3,2.2,7.2,2.2
			l11.3,0.1C546.9,129.6,548.5,129.9,550,130.5z"/>
	</g>
</g>
</svg>
